а - 148
б - 39
в - 84
г - 29
д - 65
е - 117
ж - 22
з - 17
и - 155
й - 38
к - 71
л - 77
м - 85
н - 105
о - 137
п - 51
р - 91
с - 108
т - 108
у - 31
ф - 3
х - 23
ц - 6
ч - 11
ш - 15
щ - 6
ы - 79
ь - 46
э - 1
ю - 17
я - 35
ё - 2
